lat,lon,place,value
50.627188,18.632443,Charge Point1,0.0
49.847259,18.993609,Charge Point2,0.0
49.956526,18.966514,Charge Point3,0.0
50.080898,18.522187,Charge Point4,0.0
50.23393,19.163444,Charge Point5,0.0
49.860092,18.160692,Charge Point6,0.0
50.283544,19.108794,Charge Point7,0.0
49.865906,19.145564,Charge Point8,0.0
50.178565,18.859614,Charge Point9,0.0
50.7367,18.951383,Charge Point10,0.0
49.761758,19.050186,Charge Point11,0.0
50.096828,18.540765,Charge Point12,0.0
50.312526,18.771238,Charge Point13,0.0
50.322037,18.434705,Charge Point14,0.0
50.313875,18.793798,Charge Point15,0.0
50.439774,18.810253,Charge Point16,0.0
50.345015,19.013768,Charge Point17,0.0
50.344793,18.986709,Charge Point18,0.0
50.268582,19.182116,Charge Point19,0.0
50.321753,19.180879,Charge Point20,0.0
50.486449,19.341866,Charge Point21,0.0
50.27191,18.86805,Kopalnia Guido w Zabrzu,9.0
50.24774,19.07117,Nikiszowiec w Katowicach,9.2
50.26353,19.02629,Pomnik Powstańców Śląskich w Katowicach,9.6
50.26605,19.02537,Spodek w Katowicach,9.0
50.22702,18.96363,Bazylika w Panewnikach,10.0
50.25956,19.02322,Teatr Śląski w Katowicach,9.4
50.25064,19.08362,Galeria Szyb Wilson w Katowicach,8.8
50.24242,19.04224,Dolina Trzech Stawów w Katowicach,9.4
50.18842,19.0485,Las Murckowski w Katowicach,9.8
50.2459,19.00464,Park Kościuszki w Katowicach,9.2
50.25211,19.01922,Katedra w Katowicach,9.2
50.2609,19.12659,Kąpielisko Hubertus w Mysłowicach,8.0
50.25534,19.02836,Muzeum Historii Katowic na Nikiszowcu,10.0
50.23875,18.99722,Drewniany kościół w Katowicach,9.2
50.24327,19.08061,Kościół Św. Anny na Nikiszowcu,9.4
50.2706,19.00232,Silesia City Center w Katowicach,8.8
50.09074,18.54638,Kościół pw. Królowej Apostołów,4.0
50.09741,18.54196,Kościół pw. Matki Boskiej Bolesnej,4.6
50.094,18.53623,Kościół pw. św. Józefa Robotnika,3.0
50.09186,18.51393,Kaplica Matki Bożej Częstochowskiej,4.0
50.09827,18.5499,Parafia rzymskokatolicka św. Antoniego,4.6
50.0984,18.52324,Parafia rzymskokatolicka św. Jadwigi Śląskiej,2.3
50.0507,18.60343,Parafia św. Barbary,4.8
50.11816,18.52009,Kościół pw. św. Floriana,2.5
50.13821,18.59985,Kościół pw. św. Brata Alberta Chmielowskiego,3.5
50.06161,18.55177,Parafia rzymskokatolicka św. Teresy od Dzieciątka Jezus,4.8
50.04852,18.54765,Kościół pw. Bożego Ciała,5.0
50.03503,18.53584,Jankowicka studzienka,4.4
50.00391,18.46232,Kościół Wniebowzięcia Najświętszej Maryi Panny,5.0
50.03297,18.68729,Kościół Św. Stanisława - Biskupa i Męczennika,4.9
50.03242,18.7008,Kościół Miłosierdzia Bożego,4.8
50.03977,18.75206,Kościół pw. św. Maksymiliana Marii Kolbe,3.0
50.08126,18.75689,Kościół św. Piotra i Pawła,5.0
50.00743,18.80801,Parafia rzymskokatolicka św. Karola Boromeusza,2.5
49.9605,18.71963,Parafia Rzymskokatolicka pw. św. Jana Chrzciciela,2.5
49.96117,18.77306,Kościół pw. Wniebowzięcia Najświętszej Maryi Panny w Studzionce,2.5
49.89539,18.81376,Kościół p.w. Chrystusa Króla,5.0
50.0675,18.91417,Kaplica św. Antoniego z Padwy,4.5
49.97026,18.9417,Kościół pw. Podwyższenia Krzyża Świętego i Matki Bożej Częstochowskiej,4.9
49.91764,18.94294,Kościół pw. św. Józefa w Zabrzegu,2.5
49.91845,18.99253,Kościół NMP Wspomożenia Wiernych,3.0
49.96686,19.05474,Kościół Ścięcia św. Jana Chrzciciela w Grzawie 1 opinia,2.5
49.93835,19.04911,Kościół Niepokalanego Serca NMP,5.0
49.90393,19.05838,Kościół pw. Wniebowzięcia Najświętszej Maryi Panny,2.5
50.0896,19.09338,Sanktuarium pw. św. Walentego,5.0
50.01226,19.10044,Parafia Matki Boskiej Piekarskiej,4.0
49.96017,19.13486,Kościół św. Marcina,5.0
50.01712,19.14842,"Matki Bożej Niepokalanej, Centrum św. Maksymiliana w Harmężach",2.5
50.07784,19.16172,Kościół pw. Św. Barbary,3.0
50.0036,19.1629,Kaplica na Borze parafii św. Urbana w Brzeszczach,2.5
49.81018,18.71673,Kościół św.Małgorzaty w Dębowcu,4.5
49.81135,18.7618,Kościół pw. św.Jakuba Apostoła,5.0
49.80211,18.78737,"Kościół św. Apostołów Piotra i Pawła 3,3",3.3
49.80358,18.89359,Kościół pw. Świętego Ducha,2.5
49.80066,19.01708,Parafia rzymskokatolicka pw. św. Małgorzaty,2.5
49.81266,19.01739,Kościół św. Maksymiliana Kolbego,5.0
49.81745,19.03754,Parafia rzymskokatolicka pw. NMP Królowej Polski,4.5
49.85418,19.0421,Kościół św Jana Chrzciciela,4.8
49.82011,19.04265,Parafia katedralna Pw. Św. Mikołaja,4.1
49.7937,19.04107,Kościół św. Andrzeja Boboli,4.7
49.82131,19.05644,Kościół Opatrzności Bożej,4.6
49.78996,19.05272,Parafia rzymskokatolicka pw. NMP Królowej Świata,3.7
49.81062,19.06671,Kościół św. Józefa,4.7
49.78139,19.07319,Kośció św. Barbary,5.0
49.81932,19.08791,Parafia rzymskokatolicka pw. Narodzenia NMP,5.0
49.79719,19.09525,Kościół Matki Bożej Pocieszenia,4.2
49.97992,19.21225,Zameczek Myśliwski Promnice,8.8
50.08659,18.96166,Paprocany,9.0
50.35548,18.81248,Pałac w Bytomiu Miechowicach,8.0
50.33916,18.41842,Pałac w Pławniowicach,9.2
50.40887,18.90177,Pałac w Nakle Śląskim,9.0
50.33709,19.07494,Pałac Donnersmarcków w Siemianowicach Śląskich,9.4
50.28508,18.70704,Pałac w Szałszy,8.2
50.27606,19.12748,Pałac Dietla w Sosnowcu,8.6
50.29913,19.14113,Pałac Schona w Sosnowcu,9.0
50.28613,19.10607,Nowy Pałac Schona w Sosnowcu,8.0
50.36787,18.83766,Pałac Mieroszewskich w Będzinie,9.4
50.45967,18.74891,Pałac w Rybnej,8.6
50.30095,19.14736,Dwór Mieroszewskich w Sosnowcu,6.0
50.32946,19.03969,Pałac w Będzinie Grodźcu,9.4
50.65903,17.80355,Pałac w Tworogu,7.6
50.30044,19.141,Pałac Wilhelma w Sosnowcu,8.0
50.45928,18.89703,Pałac w Kaletach Zielonej,8.4
50.6846,18.51977,Parafia rzymskokatolicka św. Jadwigi,4.0
50.69841,18.64642,Sanktuarium Matki Bożej w Lubecku,4.5
50.69001,18.6671,Parafia rzymskokatolicka św. Edyty Stein,4.7
50.66853,18.67693,Kościół Świętego Stanisława Kostki,5.0
50.67179,18.67985,Kościół Świętej Anny,2.5
50.66869,18.68551,Kościół Podwyższenia Krzyża Świętego,2.5
50.74531,18.87829,Kościół pw Najświętszego Serca Pana Jezusa,5.0
50.62091,18.84306,Parafia Rzymskokatolicka Świętej Trójcy,5.0
50.55783,18.88086,Parafia św. Józefa,5.0
50.61462,18.90305,Parafia rzymskokatolicka Świętego Krzyża,2.0
50.62578,19.36568,Kościół św. Szymona i św. Judy Tadeusza,2.5
50.42594,19.25393,Kościół Najświętszej Marii Panny,5.0
50.50914,19.41319,Kościół rzymskokatolicki pw. św. Maksymiliana Kolbego,3.7
50.47897,19.44069,Kościół rzymskokatolicki NMP Królowej Polski,5.0
50.57948,19.4422,Kościół rzymskokatolicki św. Franciszka z Asyżu,4.0
50.45261,19.52661,Kościół pw. Przemienienia Pańskiego,5.0
50.58648,19.18479,Sanktuarium św Antoniego Padewskiego,2.5
50.46912,19.23916,Kościół św. Macieja Apostoła,4.0
50.45597,19.23101,Kościół św. Jana Chrzciciela,5.0
50.54794,19.29839,Kościół p.w. Św. Anny,2.5
50.57598,19.33495,Kościół pw św Stanisława BM,5.0
50.13458,18.97027,Kościół pw. Miłosierdzia Bożego,2.5
50.13051,18.98192,Kościół pw. św. Marii Magdaleny,4.8
50.12273,18.97062,Kościół pw. św. Jadwigi Śląskiej,4.5
50.11772,18.99375,Kościół pw. Świętej Rodziny,5.0
50.11231,19.00488,Kościół pw. św. Krzysztofa,4.0
50.10524,19.00209,Kościół pw. św. Franciszka i św. Klary,4.7
50.09956,18.99515,Kościół pw. Najświętszego Serca Pana Jezusa,2.5
50.11426,19.04819,Kościół pw. Matki Bożej Pośredniczki Wszelkich Łask,4.0
50.20859,18.82181,Kościół pw. Św. Piotra i Pawła,2.5
50.16904,18.90896,Bazylika pw. św. Wojciecha,4.8
50.17488,18.88447,Kościół NMP Matki Zbawiciela,5.0
50.2376,18.86662,Kaplica św. Józefa,2.5
50.30612,18.63762,Cmentarz Centralny,4.4
50.24764,19.05201,Cmentarz Komunalny,3.9
50.83035,19.04745,Cmentarz Komunalny w Częstochowie,4.8
50.7992,19.16943,Cmentarz Żydowski,4.1
50.77547,19.14572,Cmentarz Św. Józefa,4.6
50.798688,19.186878,Koksownia Częstochowa Nowa Sp. z o.o,4.5
50.804485,19.152134,Hala Sportowa Częstochowa Sp. z o.o,2.5
50.80953,19.154237,Park Miniatur Złota Góra,4.4
50.813407,19.135676,Park im Gabriela Narutowicza,3.5
50.811753,19.128423,Rzymskokatolicka parafia pw. św. Zygmunta,1.4
50.811954,19.125358,Teatr From Poland,1.1
50.81392,19.122096,Filharmonia Częstochowska im. Bronisława Hubermana,2.4
50.814895,19.113754,Teatr im. Adama Mickiewicza,2.1
50.815851,19.112327,Sąd Okręgowy,1.9
50.812295,19.103813,Pomnik ks. Jerzego Popiełuszko,1.7
50.812721,19.097075,Klasztor Ojców Paulinów,1.5
50.812758,19.093477,Dom Pielgrzyma im. Jana Pawła II,3.4
50.811506,19.086591,Centrum Duchowości. Księża Jezuici,3.1
50.814456,19.081989,Dom Zakonny SS. Franciszkanek Rodziny Maryi,2.9
50.818597,19.086452,Cmentarz św. Rocha,2.7
50.818916,19.086216,Kościół Świętych Rocha i Sebastiana,2.5
50.790629,19.097453,Kościół pw. Najświętszego Serca Pana Jezusa,4.4
50.771266,19.07452,Kościół Nawrócenia Św. Pawła Apostoła,4.1
50.760557,19.060766,Kościół Św. Teresy od Dzieciątka Jezus,3.9
50.739492,19.059115,"""Owczarkowa Zagroda""",3.7
50.759572,19.083062,Kościół Św. Kingi,3.5
50.773469,19.116729,Kościół Św. Jadwigi Śląskiej,1.3
50.784432,19.125398,Muzeum monet i medali Jana Pawła II w Częstochowie,1.0
50.802242,19.153125,Arena Częstochowa,4.9
50.814409,19.144734,Kościół Św. Jana z Dukli,4.5
50.814721,19.144262,Klasztor O.O. Bernardynów,2.3
50.829036,19.147373,Parafia katolicka pw. Opatrzności Bożej,2.0
50.836435,19.15396,Stacja PKP Częstochowa Aniołów,1.8
50.839118,19.167447,Kościół Św. Jacka,1.6
50.844447,19.161566,Wojewódzki Inspektorat Ochrony Środowiska w Katowicach. Delegatura,1.4
50.842285,19.123844,Kościół pw. Najświętszej Maryi Panny Częstochowskiej,3.3
50.850844,19.116617,Kościół Św. Brata Alberta Chmielowskiego,3.1
50.85379,19.109113,Pierogarnia-Obiady Domowe Kiedrzyn,2.8
50.822997,19.116147,Politechnika Częstochowska Wydział Inżynierii Mechanicznej i Informatyki,2.6
50.821689,19.116801,Politechnika Częstochowska - Wydział Inżynierii Produkcji i Technologii Materiałów,2.4
50.820781,19.11708,Wydział Elektryczny Politechnika Częstochowska,4.3
50.819927,19.120803,Parafia Katolicka Św. Jadwigi Królowej,4.1
50.819588,19.117059,Akademia im. Jana Długosza Wydział Matematyczno-Przyrodniczy,3.8
50.821065,19.11988,Akademia im. Jana Długosza Wydział Filologiczno-Historyczny,3.6
50.830781,19.122852,Kościół Św. Kazimierza Królewicza,3.4
50.831568,19.084893,Muzeum Wyobraźni,1.2
50.814843,19.115802,Muzeum Częstochowskie - Dom Poezji - Muzeum Haliny Poświatowskiej,1.0
50.811616,19.112197,Muzeum Częstochowskie,4.8
50.803151,19.122625,Muzeum Produkcji Zapałek,4.6
50.812745,19.106199,Muzeum Zdzisława Beksińskiego,4.4
50.810589,19.10042,Muzeum Częstochowskie - Zagroda Włościańska,2.2
50.806175,19.096898,Muzeum Archidiecezji Częstochowskiej,2.0
50.798181,19.100481,Muzeum Historii Kolei w Częstochowie,1.7
50.7442665,18.8741884,Kościół pw Najświętszego Serca Pana Jezusa,1.5
50.7482718,18.8762912,Biedronka,1.3
50.7316255,18.7990125,Parafia pw. Matki Bożej Matki Kościoła,3.2
50.7070498,18.7492307,Parafia rzymskokatolicka św. Wawrzyńca,3.0
50.6918822,18.7003501,Parafia rzymskokatolicka św. Stanisława Biskupa i Męczennika,2.7
50.7712538,19.0742071,Parafia rzymskokatolicka Nawrócenia św. Pawła,2.5
50.7778984,19.1407508,KFC,4.2
50.7807612,19.1445702,Miejski Dom Kultury,4.0
50.785591,19.1503209,Rezerwat Archeologiczny. Oddział Muzeum Częstochowskie,3.7
50.7949913,19.1525739,Kościół NMP Wspomożycielki Wiernych,3.5
50.7733876,19.1124657,Klub Kubusia Puchatka,3.3
50.7758932,19.1295919,Żabka,1.1
50.7679795,19.1665155,Staw na Michalinie,5.0
50.7761961,19.1574603,Stadion miejski Raków,4.7
50.7861749,19.1522354,Policja. Komenda Miejska. Komisariat VI,4.5
50.7125424,19.4345218,Muzeum Regionalne im. Zygmunta Krasińskiego,4.3
50.7343539,19.3953246,Park Miniatur Zamków Jurajskich,2.1
50.6342372,19.3297499,Sanktuarium Matki Bożej Leśniowskiej Patronki Rodzin,1.9
50.6528519,19.3094939,Ranczo Madejów Przybynów,1.6
50.6752532,19.1999096,Kościół p.w. Najświętszego Serca Pana Jezusa,1.4
50.5800662,19.4325698,Kościół rzymskokatolicki św. Franciszka z Asyżu,1.2
50.5754655,19.4566,Zamek Mirów,3.1
50.5754655,19.4566,Królewski Zamek Bobolice,2.9
50.5754655,19.4566,Zamek Bąkowiec,2.6
50.29218,18.75273,Kopalnia Guido w Zabrzu,9.6
50.35565,19.05219,Kopalnia Srebra w Tarnowskich Górach,4.7
50.25947,18.9797,Skansen w Chorzowie,4.7
50.34969,18.41656,Radiostacja w Gliwicach,4.0
50.08513,18.9636,Tyskie Browarium,4.6
50.30381,18.90269,Wieże KWK Polska w Świętochłowicach,4.9
50.26501,18.56043,Podgrodzie w Będzinie,3.8
50.23559,19.04068,Muzeum Pożarnictwa w Mysłowicach,4.8
50.37814,18.86784,Skansen Maszyn Parowych w Tarnowskich Górach,5.0
50.25064,19.08143,Galeria Szyb Wilson w Katowicach,4.4
50.31285,18.64933,Ogród Botaniczny w Zabrzu,4.6
49.82346,19.05025,Muzeum Minerałów Skarby Ziemi w Bielsku-Białej,4.0
50.4299,18.88351,Muzeum w Tarnowskich Górach,4.5
50.37349,18.84389,Muzeum Chleba w Radzionkowie,4.7
50.29832,18.80165,Muzeum Górnictwa Węglowego w Zabrzu,4.4
50.30198,18.80942,Sztolnia Królowa Luiza w Zabrzu,4.7
50.2862,19.00049,Park Militarno-Historyczny Reduta w Dąbrowie Górniczej,4.7
49.82007,19.03318,Dom Tkacza w Bielsku-Białej,4.0
50.29539,18.66514,Muzeum w Gliwicach,4.5
50.29214,19.00305,Muzeum Sztygarka w Dąbrowie Górniczej,4.8
50.26403,19.04421,Muzeum Miasta Mysłowice,4.8
50.29372,18.94816,Muzeum w Chorzowie,3.6
50.47079,19.22921,Izba Tradycji i Kultury Dawnej w Siewierzu,4.5
50.29277,18.87689,Muzeum Saturn w Czeladzi,5.0
50.28833,18.92324,Muzeum Powstań Śląskich w Świętochłowicach,4.9
50.29822,19.01661,Galeria Saturn w Czeladzi,5.0
50.34386,18.93915,Muzeum Górnośląskie w Bytomiu,4.3
50.32684,19.04212,Zespół Parków Krajobrazowych w Będzinie,5.0
50.29861,18.94985,PKP Chorzów Miasto,2.0
50.29861,18.94985,PKP Chorzów Stary,3.2
50.34328,18.91495,PKP Bytom Główny,3.0
50.35017,18.88399,PKP Bytom Karb,5.2
50.37808,18.88064,PKP Bytom Północ,1.2
50.39582,18.89959,PKP Rodzionków Rojca,3.5
50.4088,18.91462,PKP Radzionków,7.2
50.4298,18.90362,PKP Nakło Śląskie,10.0
50.44666,18.86471,PKP Tarnowskie Góry,9.0
50.49533,18.89997,PKP Miasteczko Śląskie,8.4
50.53576,18.89166,PKP Zwierzyniec,7.0
50.56579,18.88842,PKP Kalety,10.0
50.61766,18.8998,PKP Strzebin,6.0
50.6663,18.90049,PKP Boronów,2.0
50.72827,18.86485,PKP Kalin,10.0
50.74831,18.85486,PKP Herby Nowe,8.0
50.622606,18.8343943,PKP Koszęcin,8.0
50.64884,18.76519,PKP Rusinowice,8.0
50.6707,18.71494,PKP Jawornica,7.4
50.6991,18.74859,PKP Kochanowice,3.2
50.72116,18.79265,PKP Lisów,6.0
50.73607,18.84458,PKP Liswarta,2.0
50.74714,18.88143,PKP Herby Stare,6.2
50.7735,18.96857,PKP Blachownia,2.8
50.79159,19.03121,PKP Częstochowa Gnaszyn,8.4
50.79762,19.10816,PKP Częstochowa Stradom,7.8
50.77114,19.17693,PKP Kucelinka,10.0
50.76773,19.31772,PKP Turów,8.0
50.76469,19.47313,PKP Julianka,10.0
50.06678,18.51512,PKP Rybnik Towarowy,7.0
50.08912,18.54749,PKP Rybnik,6.6
50.10231,18.56515,PKP Rybnik Paruszowiecz,10.0
50.11724,18.59367,PKP Kamień,9.0
50.14114,18.61843,PKP Leszczyny,7.4
50.21721,18.68838,PKP Knurów,5.0
50.26389,18.98949,PKP Katowice Załęże,6.2
50.25761,19.01703,PKP Katowice,9.0
50.25742,19.05779,PKP Katowice Zawodzie,6.6
50.259,19.09245,PKP Katowice Szopienice Południowe,6.4
50.27807,19.1266,PKP Sosnowiec Główny,8.4
50.30903,19.14157,PKP Będzin,10.0
50.31918,19.13554,PKP Będzin Miasto,2.0
50.33059,19.15872,PKP Będzin Ksawera,8.0
50.33024,19.18541,PKP Dąbrowa Górnicza,5.0
50.34385,19.22593,PKP Dąbrowa Górnicza Gołonóg,5.6
50.36699,19.26475,PKP Dąbrowa Górnicza-Ząbkowice,3.2
50.37584,19.27198,PKP Dąbrowa Górnicza Ząbkowice,3.0
50.38887,19.29887,PKP Dąbrowa Górnicza Sikorka,5.2
50.40037,19.32909,PKP Chruszczybród,7.8
50.28965,18.98867,Park Śląski,4.7
50.28296,18.99508,Śląski Ogród Zoologiczny,4.3
50.29064,18.99208,Planetarium Śląskie,4.7
50.27345,18.99141,Legendia - Śląskie Wesołe Miasteczko,3.7
50.57474,19.32838,PKP Myszków,10.0
50.59485,19.29161,PKP Myszków Nowa Wieś,5.0
50.65038,19.25401,PKP Masłowskie Natalin,4.0
50.67704,19.21832,PKP Poraj,8.2
50.73898,19.17616,PKP Korwinów,7.2
50.7884,19.15442,PKP Częstochowa Raków,9.0
50.26249,19.0148,Restauracja Indyjska Masala House,4.6
50.66225,17.92651,PKP Opole Główne,6.2
50.66076,17.89786,PKP Opole Zachodnie,2.6
50.26117,19.01696,Bob Cafe,4.3
50.48112,19.42307,PKP Zawiercie,6.4
50.25957,19.01629,Biała Małpa,4.5
50.51092,19.39892,PKP Zawiercie Borowe Pole,8.0
50.54318,19.37746,PKP Myszków Mrzygłów,9.0
50.25867,19.02566,Mad Mick,4.6
50.56564,19.35966,PKP Myszków Światowid,4.8
50.25806,19.02882,Li Long. Restauracja orientalna,3.8
50.10785,19.00025,PKP Tychy Lotnisko,6.4
50.24947,19.03803,Shanghai,3.8
50.11376,18.98671,PKP Tychy Grota Roweckiego,8.2
50.11723,18.98229,PKP Tychy Bielska,4.6
50.12119,18.97867,PKP Tychy Zachodnie,9.0
50.2974,18.9501,Restauracja CZERWONA,4.7
50.28939,18.94597,Restauracja Cechowa,4.0
50.13646,18.96446,PKP Tychy,10.0
50.29082,18.98788,Łania. Restauracja.,4.5
50.16261,18.97209,PKP Mąkołowiec,7.2
50.18291,18.96029,PKP Katowice Podlesie,8.2
50.21374,18.97111,PKP Katowice Piotrkowice,4.8
