,M,D,P_SIZE,T_SIZE,N,iterations,fitness,distance,value,prepare_time,time,total_time
0,120,0,300,5,100,8,1004.5677107237235,119.99971601033576,347.19999999999993,0 days 00:00:00.025947000,0 days 00:00:06.010906000,0 days 00:00:06.036853000
1,150,0,300,5,100,8,1190.8350341494233,149.97103282870904,422.6,0 days 00:00:00.029873000,0 days 00:00:06.912357000,0 days 00:00:06.942230000
2,170,0,300,5,100,9,1285.809340733351,169.9756278604635,467.5,0 days 00:00:00.026840000,0 days 00:00:07.943769000,0 days 00:00:07.970609000
3,210,0,300,5,100,12,1707.4948983692243,209.9926859766616,598.8000000000002,0 days 00:00:00.041801000,0 days 00:00:11.330564000,0 days 00:00:11.372365000
4,420,0,300,5,100,11,1987.297974384614,419.9999047744521,913.5999999999997,0 days 00:00:00.097563000,0 days 00:00:17.892027000,0 days 00:00:17.989590000
5,120,1,300,5,100,7,1548.5303489933285,239.89859174636064,609.4999999999999,0 days 00:00:00.084884000,0 days 00:00:06.046692000,0 days 00:00:06.131576000
6,150,1,300,5,100,10,1776.7327062831941,299.76824207518547,729.8,0 days 00:00:00.108673000,0 days 00:00:09.362745000,0 days 00:00:09.471418000
7,170,1,300,5,100,8,1488.3185118625042,339.94584221548735,711.2999999999998,0 days 00:00:00.119681000,0 days 00:00:08.859279000,0 days 00:00:08.978960000
8,210,1,300,5,100,7,1508.3988717272723,419.9531184179597,795.9,0 days 00:00:00.161385000,0 days 00:00:07.958927000,0 days 00:00:08.120312000
9,420,1,300,5,100,7,2326.8618140548056,839.8111130607833,1397.8999999999999,0 days 00:00:00.362191000,0 days 00:00:33.000310000,0 days 00:00:33.362501000
